tut7/trees/common/brent-kung.vcd
$date
	Wed Apr 16 09:08:09 2025
$end
$version
	Icarus Verilog
$end
$timescale
	1s
$end
$scope module adder_tb $end
$var reg 1 ! cin $end
$upscope $end
$scope module adder_tb $end
$var reg 1 " a1 $end
$upscope $end
$scope module adder_tb $end
$var reg 1 # a2 $end
$upscope $end
$scope module adder_tb $end
$var reg 1 $ a3 $end
$upscope $end
$scope module adder_tb $end
$var reg 1 % a4 $end
$upscope $end
$scope module adder_tb $end
$var reg 1 & a5 $end
$upscope $end
$scope module adder_tb $end
$var reg 1 ' a6 $end
$upscope $end
$scope module adder_tb $end
$var reg 1 ( a7 $end
$upscope $end
$scope module adder_tb $end
$var reg 1 ) a8 $end
$upscope $end
$scope module adder_tb $end
$var reg 1 * a9 $end
$upscope $end
$scope module adder_tb $end
$var reg 1 + a10 $end
$upscope $end
$scope module adder_tb $end
$var reg 1 , a11 $end
$upscope $end
$scope module adder_tb $end
$var reg 1 - a12 $end
$upscope $end
$scope module adder_tb $end
$var reg 1 . a13 $end
$upscope $end
$scope module adder_tb $end
$var reg 1 / a14 $end
$upscope $end
$scope module adder_tb $end
$var reg 1 0 a15 $end
$upscope $end
$scope module adder_tb $end
$var reg 1 1 a16 $end
$upscope $end
$scope module adder_tb $end
$var reg 1 2 b1 $end
$upscope $end
$scope module adder_tb $end
$var reg 1 3 b2 $end
$upscope $end
$scope module adder_tb $end
$var reg 1 4 b3 $end
$upscope $end
$scope module adder_tb $end
$var reg 1 5 b4 $end
$upscope $end
$scope module adder_tb $end
$var reg 1 6 b5 $end
$upscope $end
$scope module adder_tb $end
$var reg 1 7 b6 $end
$upscope $end
$scope module adder_tb $end
$var reg 1 8 b7 $end
$upscope $end
$scope module adder_tb $end
$var reg 1 9 b8 $end
$upscope $end
$scope module adder_tb $end
$var reg 1 : b9 $end
$upscope $end
$scope module adder_tb $end
$var reg 1 ; b10 $end
$upscope $end
$scope module adder_tb $end
$var reg 1 < b11 $end
$upscope $end
$scope module adder_tb $end
$var reg 1 = b12 $end
$upscope $end
$scope module adder_tb $end
$var reg 1 > b13 $end
$upscope $end
$scope module adder_tb $end
$var reg 1 ? b14 $end
$upscope $end
$scope module adder_tb $end
$var reg 1 @ b15 $end
$upscope $end
$scope module adder_tb $end
$var reg 1 A b16 $end
$upscope $end
$scope module adder_tb $end
$var wire 1 B cout $end
$upscope $end
$scope module adder_tb $end
$var wire 1 C s1 $end
$upscope $end
$scope module adder_tb $end
$var wire 1 D s2 $end
$upscope $end
$scope module adder_tb $end
$var wire 1 E s3 $end
$upscope $end
$scope module adder_tb $end
$var wire 1 F s4 $end
$upscope $end
$scope module adder_tb $end
$var wire 1 G s5 $end
$upscope $end
$scope module adder_tb $end
$var wire 1 H s6 $end
$upscope $end
$scope module adder_tb $end
$var wire 1 I s7 $end
$upscope $end
$scope module adder_tb $end
$var wire 1 J s8 $end
$upscope $end
$scope module adder_tb $end
$var wire 1 K s9 $end
$upscope $end
$scope module adder_tb $end
$var wire 1 L s10 $end
$upscope $end
$scope module adder_tb $end
$var wire 1 M s11 $end
$upscope $end
$scope module adder_tb $end
$var wire 1 N s12 $end
$upscope $end
$scope module adder_tb $end
$var wire 1 O s13 $end
$upscope $end
$scope module adder_tb $end
$var wire 1 P s14 $end
$upscope $end
$scope module adder_tb $end
$var wire 1 Q s15 $end
$upscope $end
$scope module adder_tb $end
$var wire 1 R s16 $end
$upscope $end
$enddefinitions $end
#0
$dumpvars
xR
xQ
xP
xO
xN
xM
xL
xK
xJ
xI
xH
xG
xF
xE
xD
xC
xB
xA
x@
x?
x>
x=
x<
x;
x:
x9
x8
x7
x6
x5
x4
x3
x2
x1
x0
x/
x.
x-
x,
x+
x*
x)
x(
x'
x&
x%
x$
x#
x"
x!
$end
#10
1R
1J
0B
1N
1F
1P
1L
1H
0D
0Q
0O
0M
0K
0I
0G
0E
1C
1!
1A
0@
1?
0>
1=
0<
1;
0:
19
08
17
06
15
04
13
12
01
00
0/
0.
0-
0,
0+
0*
0)
0(
0'
0&
0%
0$
0#
1"
#20
1D
0C
0!
03
02
1#
0"
#30
0D
1C
1!
12
1"
#40
0F
1D
1E
0C
0!
14
13
02
1$
0#
0"
#50
0D
1C
1!
12
1"
#60
1D
0C
0!
03
02
1#
0"
#70
0D
1C
1!
12
1"
#80
1F
1D
0E
0C
0!
05
04
13
02
1%
0$
0#
0"
#90
0D
1C
1!
12
1"
#100
1D
0C
0!
03
02
1#
0"
#110
0D
1C
1!
12
1"
#120
0F
1D
1E
0C
0!
14
13
02
1$
0#
0"
#130
0D
1C
1!
12
1"
#140
1D
0C
0!
03
02
1#
0"
#150
0D
1C
1!
12
1"
#160
1F
0H
1D
1G
0E
0C
0!
16
15
04
13
02
1&
0%
0$
0#
0"
#170
0D
1C
1!
12
1"
#180
1D
0C
0!
03
02
1#
0"
#190
0D
1C
1!
12
1"
#200
0F
1D
1E
0C
0!
14
13
02
1$
0#
0"
#210
0D
1C
1!
12
1"
#220
1D
0C
0!
03
02
1#
0"
#230
0D
1C
1!
12
1"
#240
1F
1D
0E
0C
0!
05
04
13
02
1%
0$
0#
0"
#250
0D
1C
1!
12
1"
#260
1D
0C
0!
03
02
1#
0"
#270
0D
1C
1!
12
1"
#280
0F
1D
1E
0C
0!
14
13
02
1$
0#
0"
#290
0D
1C
1!
12
1"
#300
1D
0C
0!
03
02
1#
0"
#310
0D
1C
1!
12
1"
#320
1F
1H
1D
0G
0E
0C
0!
07
06
15
04
13
02
1'
0&
0%
0$
0#
0"
#330
0D
1C
1!
12
1"
#340
1D
0C
0!
03
02
1#
0"
#350
0D
1C
1!
12
1"
#360
0F
1D
1E
0C
0!
14
13
02
1$
0#
0"
#370
0D
1C
1!
12
1"
#380
1D
0C
0!
03
02
1#
0"
#390
0D
1C
1!
12
1"
#400
1F
1D
0E
0C
0!
05
04
13
02
1%
0$
0#
0"
#410
0D
1C
1!
12
1"
#420
1D
0C
0!
03
02
1#
0"
#430
0D
1C
1!
12
1"
#440
0F
1D
1E
0C
0!
14
13
02
1$
0#
0"
#450
0D
1C
1!
12
1"
#460
1D
0C
0!
03
02
1#
0"
#470
0D
1C
1!
12
1"
#480
1F
0H
1D
1G
0E
0C
0!
16
15
04
13
02
1&
0%
0$
0#
0"
#490
0D
1C
1!
12
1"
#500
1D
0C
0!
03
02
1#
0"
#510
0D
1C
1!
12
1"
#520
0F
1D
1E
0C
0!
14
13
02
1$
0#
0"
#530
0D
1C
1!
12
1"
#540
1D
0C
0!
03
02
1#
0"
#550
0D
1C
1!
12
1"
#560
1F
1D
0E
0C
0!
05
04
13
02
1%
0$
0#
0"
#570
0D
1C
1!
12
1"
#580
1D
0C
0!
03
02
1#
0"
#590
0D
1C
1!
12
1"
#600
0F
1D
1E
0C
0!
14
13
02
1$
0#
0"
#610
0D
1C
1!
12
1"
#620
1D
0C
0!
03
02
1#
0"
#630
0D
1C
1!
12
1"
#640
0J
1F
1H
1D
1I
0G
0E
0C
0!
18
17
06
15
04
13
02
1(
0'
0&
0%
0$
0#
0"
#650
0D
1C
1!
12
1"
#660
1D
0C
0!
03
02
1#
0"
#670
0D
1C
1!
12
1"
#680
0F
1D
1E
0C
0!
14
13
02
1$
0#
0"
#690
0D
1C
1!
12
1"
#700
1D
0C
0!
03
02
1#
0"
#710
0D
1C
1!
12
1"
#720
1F
1D
0E
0C
0!
05
04
13
02
1%
0$
0#
0"
#730
0D
1C
1!
12
1"
#740
1D
0C
0!
03
02
1#
0"
#750
0D
1C
1!
12
1"
#760
0F
1D
1E
0C
0!
14
13
02
1$
0#
0"
#770
0D
1C
1!
12
1"
#780
1D
0C
0!
03
02
1#
0"
#790
0D
1C
1!
12
1"
#800
1F
0H
1D
1G
0E
0C
0!
16
15
04
13
02
1&
0%
0$
0#
0"
#810
0D
1C
1!
12
1"
#820
1D
0C
0!
03
02
1#
0"
#830
0D
1C
1!
12
1"
#840
0F
1D
1E
0C
0!
14
13
02
1$
0#
0"
#850
0D
1C
1!
12
1"
#860
1D
0C
0!
03
02
1#
0"
#870
0D
1C
1!
12
1"
#880
1F
1D
0E
0C
0!
05
04
13
02
1%
0$
0#
0"
#890
0D
1C
1!
12
1"
#900
1D
0C
0!
03
02
1#
0"
#910
0D
1C
1!
12
1"
#920
0F
1D
1E
0C
0!
14
13
02
1$
0#
0"
#930
0D
1C
1!
12
1"
#940
1D
0C
0!
03
02
1#
0"
#950
0D
1C
1!
12
1"
#960
1F
1H
1D
0G
0E
0C
0!
07
06
15
04
13
02
1'
0&
0%
0$
0#
0"
#970
0D
1C
1!
12
1"
#980
1D
0C
0!
03
02
1#
0"
#990
0D
1C
1!
12
1"
#1000
0F
1D
1E
0C
0!
14
13
02
1$
0#
0"
#1010
0D
1C
1!
12
1"
#1020
1D
0C
0!
03
02
1#
0"
#1030
0D
1C
1!
12
1"
#1040
1F
1D
0E
0C
0!
05
04
13
02
1%
0$
0#
0"
#1050
0D
1C
1!
12
1"
#1060
1D
0C
0!
03
02
1#
0"
#1070
0D
1C
1!
12
1"
#1080
0F
1D
1E
0C
0!
14
13
02
1$
0#
0"
#1090
0D
1C
1!
12
1"
#1100
1D
0C
0!
03
02
1#
0"
#1110
0D
1C
1!
12
1"
#1120
1F
0H
1D
1G
0E
0C
0!
16
15
04
13
02
1&
0%
0$
0#
0"
#1130
0D
1C
1!
12
1"
#1140
1D
0C
0!
03
02
1#
0"
#1150
0D
1C
1!
12
1"
#1160
0F
1D
1E
0C
0!
14
13
02
1$
0#
0"
#1170
0D
1C
1!
12
1"
#1180
1D
0C
0!
03
02
1#
0"
#1190
0D
1C
1!
12
1"
#1200
1F
1D
0E
0C
0!
05
04
13
02
1%
0$
0#
0"
#1210
0D
1C
1!
12
1"
#1220
1D
0C
0!
03
02
1#
0"
#1230
0D
1C
1!
12
1"
#1240
0F
1D
1E
0C
0!
14
13
02
1$
0#
0"
#1250
0D
1C
1!
12
1"
#1260
1D
0C
0!
03
02
1#
0"
#1270
0D
1C
1!
12
1"
#1280
1J
1F
1H
1D
0I
0G
0E
0C
0!
09
08
17
06
15
04
13
02
1)
0(
0'
0&
0%
0$
0#
0"
#1290
0D
1C
1!
12
1"
#1300
1D
0C
0!
03
02
1#
0"
#1310
0D
1C
1!
12
1"
#1320
0F
1D
1E
0C
0!
14
13
02
1$
0#
0"
#1330
0D
1C
1!
12
1"
#1340
1D
0C
0!
03
02
1#
0"
#1350
0D
1C
1!
12
1"
#1360
1F
1D
0E
0C
0!
05
04
13
02
1%
0$
0#
0"
#1370
0D
1C
1!
12
1"
#1380
1D
0C
0!
03
02
1#
0"
#1390
0D
1C
1!
12
1"
#1400
0F
1D
1E
0C
0!
14
13
02
1$
0#
0"
#1410
0D
1C
1!
12
1"
#1420
1D
0C
0!
03
02
1#
0"
#1430
0D
1C
1!
12
1"
#1440
1F
0H
1D
1G
0E
0C
0!
16
15
04
13
02
1&
0%
0$
0#
0"
#1450
0D
1C
1!
12
1"
#1460
1D
0C
0!
03
02
1#
0"
#1470
0D
1C
1!
12
1"
#1480
0F
1D
1E
0C
0!
14
13
02
1$
0#
0"
#1490
0D
1C
1!
12
1"
#1500
1D
0C
0!
03
02
1#
0"
#1510
0D
1C
1!
12
1"
#1520
1F
1D
0E
0C
0!
05
04
13
02
1%
0$
0#
0"
#1530
0D
1C
1!
12
1"
#1540
1D
0C
0!
03
02
1#
0"
#1550
0D
1C
1!
12
1"
#1560
0F
1D
1E
0C
0!
14
13
02
1$
0#
0"
#1570
0D
1C
1!
12
1"
#1580
1D
0C
0!
03
02
1#
0"
#1590
0D
1C
1!
12
1"
#1600
1F
1H
1D
0G
0E
0C
0!
07
06
15
04
13
02
1'
0&
0%
0$
0#
0"
#1610
0D
1C
1!
12
1"
#1620
1D
0C
0!
03
02
1#
0"
#1630
0D
1C
1!
12
1"
#1640
0F
1D
1E
0C
0!
14
13
02
1$
0#
0"
#1650
0D
1C
1!
12
1"
#1660
1D
0C
0!
03
02
1#
0"
#1670
0D
1C
1!
12
1"
#1680
1F
1D
0E
0C
0!
05
04
13
02
1%
0$
0#
0"
#1690
0D
1C
1!
12
1"
#1700
1D
0C
0!
03
02
1#
0"
#1710
0D
1C
1!
12
1"
#1720
0F
1D
1E
0C
0!
14
13
02
1$
0#
0"
#1730
0D
1C
1!
12
1"
#1740
1D
0C
0!
03
02
1#
0"
#1750
0D
1C
1!
12
1"
#1760
1F
0H
1D
1G
0E
0C
0!
16
15
04
13
02
1&
0%
0$
0#
0"
#1770
0D
1C
1!
12
1"
#1780
1D
0C
0!
03
02
1#
0"
#1790
0D
1C
1!
12
1"
#1800
0F
1D
1E
0C
0!
14
13
02
1$
0#
0"
#1810
0D
1C
1!
12
1"
#1820
1D
0C
0!
03
02
1#
0"
#1830
0D
1C
1!
12
1"
#1840
1F
1D
0E
0C
0!
05
04
13
02
1%
0$
0#
0"
#1850
0D
1C
1!
12
1"
#1860
1D
0C
0!
03
02
1#
0"
#1870
0D
1C
1!
12
1"
#1880
0F
1D
1E
0C
0!
14
13
02
1$
0#
0"
#1890
0D
1C
1!
12
1"
#1900
1D
0C
0!
03
02
1#
0"
#1910
0D
1C
1!
12
1"
#1920
0J
1F
1H
1D
1I
0G
0E
0C
0!
18
17
06
15
04
13
02
1(
0'
0&
0%
0$
0#
0"
#1930
0D
1C
1!
12
1"
#1940
1D
0C
0!
03
02
1#
0"
#1950
0D
1C
1!
12
1"
#1960
0F
1D
1E
0C
0!
14
13
02
1$
0#
0"
#1970
0D
1C
1!
12
1"
#1980
1D
0C
0!
03
02
1#
0"
#1990
0D
1C
1!
12
1"
#2000
1F
1D
0E
0C
0!
05
04
13
02
1%
0$
0#
0"
#2010
0D
1C
1!
12
1"
#2020
1D
0C
0!
03
02
1#
0"
#2030
0D
1C
1!
12
1"
#2040
0F
1D
1E
0C
0!
14
13
02
1$
0#
0"
#2050
0D
1C
1!
12
1"
#2060
1D
0C
0!
03
02
1#
0"
#2070
0D
1C
1!
12
1"
#2080
1F
0H
1D
1G
0E
0C
0!
16
15
04
13
02
1&
0%
0$
0#
0"
#2090
0D
1C
1!
12
1"
#2100
1D
0C
0!
03
02
1#
0"
#2110
0D
1C
1!
12
1"
#2120
0F
1D
1E
0C
0!
14
13
02
1$
0#
0"
#2130
0D
1C
1!
12
1"
#2140
1D
0C
0!
03
02
1#
0"
#2150
0D
1C
1!
12
1"
#2160
1F
1D
0E
0C
0!
05
04
13
02
1%
0$
0#
0"
#2170
0D
1C
1!
12
1"
#2180
1D
0C
0!
03
02
1#
0"
#2190
0D
1C
1!
12
1"
#2200
0F
1D
1E
0C
0!
14
13
02
1$
0#
0"
#2210
0D
1C
1!
12
1"
#2220
1D
0C
0!
03
02
1#
0"
#2230
0D
1C
1!
12
1"
#2240
1F
1H
1D
0G
0E
0C
0!
07
06
15
04
13
02
1'
0&
0%
0$
0#
0"
#2250
0D
1C
1!
12
1"
#2260
1D
0C
0!
03
02
1#
0"
#2270
0D
1C
1!
12
1"
#2280
0F
1D
1E
0C
0!
14
13
02
1$
0#
0"
#2290
0D
1C
1!
12
1"
#2300
1D
0C
0!
03
02
1#
0"
#2310
0D
1C
1!
12
1"
#2320
1F
1D
0E
0C
0!
05
04
13
02
1%
0$
0#
0"
#2330
0D
1C
1!
12
1"
#2340
1D
0C
0!
03
02
1#
0"
#2350
0D
1C
1!
12
1"
#2360
0F
1D
1E
0C
0!
14
13
02
1$
0#
0"
#2370
0D
1C
1!
12
1"
#2380
1D
0C
0!
03
02
1#
0"
#2390
0D
1C
1!
12
1"
#2400
1F
0H
1D
1G
0E
0C
0!
16
15
04
13
02
1&
0%
0$
0#
0"
#2410
0D
1C
1!
12
1"
#2420
1D
0C
0!
03
02
1#
0"
#2430
0D
1C
1!
12
1"
#2440
0F
1D
1E
0C
0!
14
13
02
1$
0#
0"
#2450
0D
1C
1!
12
1"
#2460
1D
0C
0!
03
02
1#
0"
#2470
0D
1C
1!
12
1"
#2480
1F
1D
0E
0C
0!
05
04
13
02
1%
0$
0#
0"
#2490
0D
1C
1!
12
1"
#2500
1D
0C
0!
03
02
1#
0"
#2510
0D
1C
1!
12
1"
#2520
0F
1D
1E
0C
0!
14
13
02
1$
0#
0"
#2530
0D
1C
1!
12
1"
#2540
1D
0C
0!
03
02
1#
0"
#2550
0D
1C
1!
12
1"
#2560
1J
1F
0L
1H
1D
1K
0I
0G
0E
0C
0!
1:
19
08
17
06
15
04
13
02
1*
0)
0(
0'
0&
0%
0$
0#
0"
#2570
0D
1C
1!
12
1"
#2580
1D
0C
0!
03
02
1#
0"
#2590
0D
1C
1!
12
1"
#2600
0F
1D
1E
0C
0!
14
13
02
1$
0#
0"
#2610
0D
1C
1!
12
1"
#2620
1D
0C
0!
03
02
1#
0"
#2630
0D
1C
1!
12
1"
#2640
1F
1D
0E
0C
0!
05
04
13
02
1%
0$
0#
0"
#2650
0D
1C
1!
12
1"
#2660
1D
0C
0!
03
02
1#
0"
#2670
0D
1C
1!
12
1"
#2680
0F
1D
1E
0C
0!
14
13
02
1$
0#
0"
#2690
0D
1C
1!
12
1"
#2700
1D
0C
0!
03
02
1#
0"
#2710
0D
1C
1!
12
1"
#2720
1F
0H
1D
1G
0E
0C
0!
16
15
04
13
02
1&
0%
0$
0#
0"
#2730
0D
1C
1!
12
1"
#2740
1D
0C
0!
03
02
1#
0"
#2750
0D
1C
1!
12
1"
#2760
0F
1D
1E
0C
0!
14
13
02
1$
0#
0"
#2770
0D
1C
1!
12
1"
#2780
1D
0C
0!
03
02
1#
0"
#2790
0D
1C
1!
12
1"
#2800
1F
1D
0E
0C
0!
05
04
13
02
1%
0$
0#
0"
#2810
0D
1C
1!
12
1"
#2820
1D
0C
0!
03
02
1#
0"
#2830
0D
1C
1!
12
1"
#2840
0F
1D
1E
0C
0!
14
13
02
1$
0#
0"
#2850
0D
1C
1!
12
1"
#2860
1D
0C
0!
03
02
1#
0"
#2870
0D
1C
1!
12
1"
#2880
1F
1H
1D
0G
0E
0C
0!
07
06
15
04
13
02
1'
0&
0%
0$
0#
0"
#2890
0D
1C
1!
12
1"
#2900
1D
0C
0!
03
02
1#
0"
#2910
0D
1C
1!
12
1"
#2920
0F
1D
1E
0C
0!
14
13
02
1$
0#
0"
#2930
0D
1C
1!
12
1"
#2940
1D
0C
0!
03
02
1#
0"
#2950
0D
1C
1!
12
1"
#2960
1F
1D
0E
0C
0!
05
04
13
02
1%
0$
0#
0"
#2970
0D
1C
1!
12
1"
#2980
1D
0C
0!
03
02
1#
0"
#2990
0D
1C
1!
12
1"
#3000
0F
1D
1E
0C
0!
14
13
02
1$
0#
0"
#3010
0D
1C
1!
12
1"
#3020
1D
0C
0!
03
02
1#
0"
#3030
0D
1C
1!
12
1"
#3040
1F
0H
1D
1G
0E
0C
0!
16
15
04
13
02
1&
0%
0$
0#
0"
#3050
0D
1C
1!
12
1"
#3060
1D
0C
0!
03
02
1#
0"
#3070
0D
1C
1!
12
1"
#3080
0F
1D
1E
0C
0!
14
13
02
1$
0#
0"
#3090
0D
1C
1!
12
1"
#3100
1D
0C
0!
03
02
1#
0"
#3110
0D
1C
1!
12
1"
#3120
1F
1D
0E
0C
0!
05
04
13
02
1%
0$
0#
0"
#3130
0D
1C
1!
12
1"
#3140
1D
0C
0!
03
02
1#
0"
#3150
0D
1C
1!
12
1"
#3160
0F
1D
1E
0C
0!
14
13
02
1$
0#
0"
#3170
0D
1C
1!
12
1"
#3180
1D
0C
0!
03
02
1#
0"
#3190
0D
1C
1!
12
1"
#3200
0J
1F
1H
1D
1I
0G
0E
0C
0!
18
17
06
15
04
13
02
1(
0'
0&
0%
0$
0#
0"
#3210
0D
1C
1!
12
1"
#3220
1D
0C
0!
03
02
1#
0"
#3230
0D
1C
1!
12
1"
#3240
0F
1D
1E
0C
0!
14
13
02
1$
0#
0"
#3250
0D
1C
1!
12
1"
#3260
1D
0C
0!
03
02
1#
0"
#3270
0D
1C
1!
12
1"
#3280
1F
1D
0E
0C
0!
05
04
13
02
1%
0$
0#
0"
#3290
0D
1C
1!
12
1"
#3300
1D
0C
0!
03
02
1#
0"
#3310
0D
1C
1!
12
1"
#3320
0F
1D
1E
0C
0!
14
13
02
1$
0#
0"
#3330
0D
1C
1!
12
1"
#3340
1D
0C
0!
03
02
1#
0"
#3350
0D
1C
1!
12
1"
#3360
1F
0H
1D
1G
0E
0C
0!
16
15
04
13
02
1&
0%
0$
0#
0"
#3370
0D
1C
1!
12
1"
#3380
1D
0C
0!
03
02
1#
0"
#3390
0D
1C
1!
12
1"
#3400
0F
1D
1E
0C
0!
14
13
02
1$
0#
0"
#3410
0D
1C
1!
12
1"
#3420
1D
0C
0!
03
02
1#
0"
#3430
0D
1C
1!
12
1"
#3440
1F
1D
0E
0C
0!
05
04
13
02
1%
0$
0#
0"
#3450
0D
1C
1!
12
1"
#3460
1D
0C
0!
03
02
1#
0"
#3470
0D
1C
1!
12
1"
#3480
0F
1D
1E
0C
0!
14
13
02
1$
0#
0"
#3490
0D
1C
1!
12
1"
#3500
1D
0C
0!
03
02
1#
0"
#3510
0D
1C
1!
12
1"
#3520
1F
1H
1D
0G
0E
0C
0!
07
06
15
04
13
02
1'
0&
0%
0$
0#
0"
#3530
0D
1C
1!
12
1"
#3540
1D
0C
0!
03
02
1#
0"
#3550
0D
1C
1!
12
1"
#3560
0F
1D
1E
0C
0!
14
13
02
1$
0#
0"
#3570
0D
1C
1!
12
1"
#3580
1D
0C
0!
03
02
1#
0"
#3590
0D
1C
1!
12
1"
#3600
1F
1D
0E
0C
0!
05
04
13
02
1%
0$
0#
0"
#3610
0D
1C
1!
12
1"
#3620
1D
0C
0!
03
02
1#
0"
#3630
0D
1C
1!
12
1"
#3640
0F
1D
1E
0C
0!
14
13
02
1$
0#
0"
#3650
0D
1C
1!
12
1"
#3660
1D
0C
0!
03
02
1#
0"
#3670
0D
1C
1!
12
1"
#3680
1F
0H
1D
1G
0E
0C
0!
16
15
04
13
02
1&
0%
0$
0#
0"
#3690
0D
1C
1!
12
1"
#3700
1D
0C
0!
03
02
1#
0"
#3710
0D
1C
1!
12
1"
#3720
0F
1D
1E
0C
0!
14
13
02
1$
0#
0"
#3730
0D
1C
1!
12
1"
#3740
1D
0C
0!
03
02
1#
0"
#3750
0D
1C
1!
12
1"
#3760
1F
1D
0E
0C
0!
05
04
13
02
1%
0$
0#
0"
#3770
0D
1C
1!
12
1"
#3780
1D
0C
0!
03
02
1#
0"
#3790
0D
1C
1!
12
1"
#3800
0F
1D
1E
0C
0!
14
13
02
1$
0#
0"
#3810
0D
1C
1!
12
1"
#3820
1D
0C
0!
03
02
1#
0"
#3830
0D
1C
1!
12
1"
#3840
1J
1F
1H
1D
0I
0G
0E
0C
0!
09
08
17
06
15
04
13
02
1)
0(
0'
0&
0%
0$
0#
0"
#3850
0D
1C
1!
12
1"
#3860
1D
0C
0!
03
02
1#
0"
#3870
0D
1C
1!
12
1"
#3880
0F
1D
1E
0C
0!
14
13
02
1$
0#
0"
#3890
0D
1C
1!
12
1"
#3900
1D
0C
0!
03
02
1#
0"
#3910
0D
1C
1!
12
1"
#3920
1F
1D
0E
0C
0!
05
04
13
02
1%
0$
0#
0"
#3930
0D
1C
1!
12
1"
#3940
1D
0C
0!
03
02
1#
0"
#3950
0D
1C
1!
12
1"
#3960
0F
1D
1E
0C
0!
14
13
02
1$
0#
0"
#3970
0D
1C
1!
12
1"
#3980
1D
0C
0!
03
02
1#
0"
#3990
0D
1C
1!
12
1"
#4000
1F
0H
1D
1G
0E
0C
0!
16
15
04
13
02
1&
0%
0$
0#
0"
#4010
0D
1C
1!
12
1"
#4020
1D
0C
0!
03
02
1#
0"
#4030
0D
1C
1!
12
1"
#4040
0F
1D
1E
0C
0!
14
13
02
1$
0#
0"
#4050
0D
1C
1!
12
1"
#4060
1D
0C
0!
03
02
1#
0"
#4070
0D
1C
1!
12
1"
#4080
1F
1D
0E
0C
0!
05
04
13
02
1%
0$
0#
0"
#4090
0D
1C
1!
12
1"
#4100
1D
0C
0!
03
02
1#
0"
#4110
0D
1C
1!
12
1"
#4120
0F
1D
1E
0C
0!
14
13
02
1$
0#
0"
#4130
0D
1C
1!
12
1"
#4140
1D
0C
0!
03
02
1#
0"
#4150
0D
1C
1!
12
1"
#4160
1F
1H
1D
0G
0E
0C
0!
07
06
15
04
13
02
1'
0&
0%
0$
0#
0"
#4170
0D
1C
1!
12
1"
#4180
1D
0C
0!
03
02
1#
0"
#4190
0D
1C
1!
12
1"
#4200
0F
1D
1E
0C
0!
14
13
02
1$
0#
0"
#4210
0D
1C
1!
12
1"
#4220
1D
0C
0!
03
02
1#
0"
#4230
0D
1C
1!
12
1"
#4240
1F
1D
0E
0C
0!
05
04
13
02
1%
0$
0#
0"
#4250
0D
1C
1!
12
1"
#4260
1D
0C
0!
03
02
1#
0"
#4270
0D
1C
1!
12
1"
#4280
0F
1D
1E
0C
0!
14
13
02
1$
0#
0"
#4290
0D
1C
1!
12
1"
#4300
1D
0C
0!
03
02
1#
0"
#4310
0D
1C
1!
12
1"
#4320
1F
0H
1D
1G
0E
0C
0!
16
15
04
13
02
1&
0%
0$
0#
0"
#4330
0D
1C
1!
12
1"
#4340
1D
0C
0!
03
02
1#
0"
#4350
0D
1C
1!
12
1"
#4360
0F
1D
1E
0C
0!
14
13
02
1$
0#
0"
#4370
0D
1C
1!
12
1"
#4380
1D
0C
0!
03
02
1#
0"
#4390
0D
1C
1!
12
1"
#4400
1F
1D
0E
0C
0!
05
04
13
02
1%
0$
0#
0"
#4410
0D
1C
1!
12
1"
#4420
1D
0C
0!
03
02
1#
0"
#4430
0D
1C
1!
12
1"
#4440
0F
1D
1E
0C
0!
14
13
02
1$
0#
0"
#4450
0D
1C
1!
12
1"
#4460
1D
0C
0!
03
02
1#
0"
#4470
0D
1C
1!
12
1"
#4480
0J
1F
1H
1D
1I
0G
0E
0C
0!
18
17
06
15
04
13
02
1(
0'
0&
0%
0$
0#
0"
#4490
0D
1C
1!
12
1"
#4500
1D
0C
0!
03
02
1#
0"
#4510
0D
1C
1!
12
1"
#4520
0F
1D
1E
0C
0!
14
13
02
1$
0#
0"
#4530
0D
1C
1!
12
1"
#4540
1D
0C
0!
03
02
1#
0"
#4550
0D
1C
1!
12
1"
#4560
1F
1D
0E
0C
0!
05
04
13
02
1%
0$
0#
0"
#4570
0D
1C
1!
12
1"
#4580
1D
0C
0!
03
02
1#
0"
#4590
0D
1C
1!
12
1"
#4600
0F
1D
1E
0C
0!
14
13
02
1$
0#
0"
#4610
0D
1C
1!
12
1"
#4620
1D
0C
0!
03
02
1#
0"
#4630
0D
1C
1!
12
1"
#4640
1F
0H
1D
1G
0E
0C
0!
16
15
04
13
02
1&
0%
0$
0#
0"
#4650
0D
1C
1!
12
1"
#4660
1D
0C
0!
03
02
1#
0"
#4670
0D
1C
1!
12
1"
#4680
0F
1D
1E
0C
0!
14
13
02
1$
0#
0"
#4690
0D
1C
1!
12
1"
#4700
1D
0C
0!
03
02
1#
0"
#4710
0D
1C
1!
12
1"
#4720
1F
1D
0E
0C
0!
05
04
13
02
1%
0$
0#
0"
#4730
0D
1C
1!
12
1"
#4740
1D
0C
0!
03
02
1#
0"
#4750
0D
1C
1!
12
1"
#4760
0F
1D
1E
0C
0!
14
13
02
1$
0#
0"
#4770
0D
1C
1!
12
1"
#4780
1D
0C
0!
03
02
1#
0"
#4790
0D
1C
1!
12
1"
#4800
1F
1H
1D
0G
0E
0C
0!
07
06
15
04
13
02
1'
0&
0%
0$
0#
0"
#4810
0D
1C
1!
12
1"
#4820
1D
0C
0!
03
02
1#
0"
#4830
0D
1C
1!
12
1"
#4840
0F
1D
1E
0C
0!
14
13
02
1$
0#
0"
#4850
0D
1C
1!
12
1"
#4860
1D
0C
0!
03
02
1#
0"
#4870
0D
1C
1!
12
1"
#4880
1F
1D
0E
0C
0!
05
04
13
02
1%
0$
0#
0"
#4890
0D
1C
1!
12
1"
#4900
1D
0C
0!
03
02
1#
0"
#4910
0D
1C
1!
12
1"
#4920
0F
1D
1E
0C
0!
14
13
02
1$
0#
0"
#4930
0D
1C
1!
12
1"
#4940
1D
0C
0!
03
02
1#
0"
#4950
0D
1C
1!
12
1"
#4960
1F
0H
1D
1G
0E
0C
0!
16
15
04
13
02
1&
0%
0$
0#
0"
#4970
0D
1C
1!
12
1"
#4980
1D
0C
0!
03
02
1#
0"
#4990
0D
1C
1!
12
1"
#5000
0F
1D
1E
0C
0!
14
13
02
1$
0#
0"
#5010
0D
1C
1!
12
1"
#5020
1D
0C
0!
03
02
1#
0"
#5030
0D
1C
1!
12
1"
#5040
1F
1D
0E
0C
0!
05
04
13
02
1%
0$
0#
0"
#5050
0D
1C
1!
12
1"
#5060
1D
0C
0!
03
02
1#
0"
#5070
0D
1C
1!
12
1"
#5080
0F
1D
1E
0C
0!
14
13
02
1$
0#
0"
#5090
0D
1C
1!
12
1"
#5100
1D
0C
0!
03
02
1#
0"
#5110
0D
1C
1!
12
1"
#5120
1J
1F
1L
1H
1D
0K
0I
0G
0E
0C
0!
0;
0:
19
08
17
06
15
04
13
02
1+
0*
0)
0(
0'
0&
0%
0$
0#
0"
#5130
0D
1C
1!
12
1"
#5140
1D
0C
0!
03
02
1#
0"
#5150
0D
1C
1!
12
1"
#5160
0F
1D
1E
0C
0!
14
13
02
1$
0#
0"
#5170
0D
1C
1!
12
1"
#5180
1D
0C
0!
03
02
1#
0"
#5190
0D
1C
1!
12
1"
#5200
1F
1D
0E
0C
0!
05
04
13
02
1%
0$
0#
0"
#5210
0D
1C
1!
12
1"
#5220
1D
0C
0!
03
02
1#
0"
#5230
0D
1C
1!
12
1"
