tut7/trees/common/kogge-stone.vcd
$date
	Wed Apr 16 15:33:01 2025
$end
$version
	Icarus Verilog
$end
$timescale
	1s
$end
$scope module adder_tb $end
$var reg 1 ! cin $end
$upscope $end
$scope module adder_tb $end
$var reg 1 " a1 $end
$upscope $end
$scope module adder_tb $end
$var reg 1 # a2 $end
$upscope $end
$scope module adder_tb $end
$var reg 1 $ a3 $end
$upscope $end
$scope module adder_tb $end
$var reg 1 % a4 $end
$upscope $end
$scope module adder_tb $end
$var reg 1 & a5 $end
$upscope $end
$scope module adder_tb $end
$var reg 1 ' a6 $end
$upscope $end
$scope module adder_tb $end
$var reg 1 ( a7 $end
$upscope $end
$scope module adder_tb $end
$var reg 1 ) a8 $end
$upscope $end
$scope module adder_tb $end
$var reg 1 * a9 $end
$upscope $end
$scope module adder_tb $end
$var reg 1 + a10 $end
$upscope $end
$scope module adder_tb $end
$var reg 1 , a11 $end
$upscope $end
$scope module adder_tb $end
$var reg 1 - a12 $end
$upscope $end
$scope module adder_tb $end
$var reg 1 . a13 $end
$upscope $end
$scope module adder_tb $end
$var reg 1 / a14 $end
$upscope $end
$scope module adder_tb $end
$var reg 1 0 a15 $end
$upscope $end
$scope module adder_tb $end
$var reg 1 1 a16 $end
$upscope $end
$scope module adder_tb $end
$var reg 1 2 b1 $end
$upscope $end
$scope module adder_tb $end
$var reg 1 3 b2 $end
$upscope $end
$scope module adder_tb $end
$var reg 1 4 b3 $end
$upscope $end
$scope module adder_tb $end
$var reg 1 5 b4 $end
$upscope $end
$scope module adder_tb $end
$var reg 1 6 b5 $end
$upscope $end
$scope module adder_tb $end
$var reg 1 7 b6 $end
$upscope $end
$scope module adder_tb $end
$var reg 1 8 b7 $end
$upscope $end
$scope module adder_tb $end
$var reg 1 9 b8 $end
$upscope $end
$scope module adder_tb $end
$var reg 1 : b9 $end
$upscope $end
$scope module adder_tb $end
$var reg 1 ; b10 $end
$upscope $end
$scope module adder_tb $end
$var reg 1 < b11 $end
$upscope $end
$scope module adder_tb $end
$var reg 1 = b12 $end
$upscope $end
$scope module adder_tb $end
$var reg 1 > b13 $end
$upscope $end
$scope module adder_tb $end
$var reg 1 ? b14 $end
$upscope $end
$scope module adder_tb $end
$var reg 1 @ b15 $end
$upscope $end
$scope module adder_tb $end
$var reg 1 A b16 $end
$upscope $end
$scope module adder_tb $end
$var wire 1 B cout $end
$upscope $end
$scope module adder_tb $end
$var wire 1 C s1 $end
$upscope $end
$scope module adder_tb $end
$var wire 1 D s2 $end
$upscope $end
$scope module adder_tb $end
$var wire 1 E s3 $end
$upscope $end
$scope module adder_tb $end
$var wire 1 F s4 $end
$upscope $end
$scope module adder_tb $end
$var wire 1 G s5 $end
$upscope $end
$scope module adder_tb $end
$var wire 1 H s6 $end
$upscope $end
$scope module adder_tb $end
$var wire 1 I s7 $end
$upscope $end
$scope module adder_tb $end
$var wire 1 J s8 $end
$upscope $end
$scope module adder_tb $end
$var wire 1 K s9 $end
$upscope $end
$scope module adder_tb $end
$var wire 1 L s10 $end
$upscope $end
$scope module adder_tb $end
$var wire 1 M s11 $end
$upscope $end
$scope module adder_tb $end
$var wire 1 N s12 $end
$upscope $end
$scope module adder_tb $end
$var wire 1 O s13 $end
$upscope $end
$scope module adder_tb $end
$var wire 1 P s14 $end
$upscope $end
$scope module adder_tb $end
$var wire 1 Q s15 $end
$upscope $end
$scope module adder_tb $end
$var wire 1 R s16 $end
$upscope $end
$enddefinitions $end
#0
$dumpvars
xR
xQ
xP
xO
xN
xM
xL
xK
xJ
xI
xH
xG
xF
xE
xD
xC
xB
xA
x@
x?
x>
x=
x<
x;
x:
x9
x8
x7
x6
x5
x4
x3
x2
x1
x0
x/
x.
x-
x,
x+
x*
x)
x(
x'
x&
x%
x$
x#
x"
x!
$end
#10
0R
0Q
0O
0L
0K
0M
0P
0N
0B
0J
0H
0G
0I
0F
0E
1D
1C
1!
1A
0@
1?
0>
1=
0<
1;
0:
19
08
17
06
15
04
13
12
01
00
0/
0.
0-
0,
0+
0*
0)
0(
0'
0&
0%
0$
0#
1"
#20
0D
0C
0!
03
02
1#
0"
#30
1D
1C
1!
12
1"
#40
1F
1E
0D
0C
0!
14
13
02
1$
0#
0"
#50
1D
1C
1!
12
1"
#60
0D
0C
0!
03
02
1#
0"
#70
1D
1C
1!
12
1"
#80
0F
0E
0D
0C
0!
05
04
13
02
1%
0$
0#
0"
#90
1D
1C
1!
12
1"
#100
0D
0C
0!
03
02
1#
0"
#110
1D
1C
1!
12
1"
#120
1F
1E
0D
0C
0!
14
13
02
1$
0#
0"
#130
1D
1C
1!
12
1"
#140
0D
0C
0!
03
02
1#
0"
#150
1D
1C
1!
12
1"
#160
1H
1G
0F
0E
0D
0C
0!
16
15
04
13
02
1&
0%
0$
0#
0"
#170
1D
1C
1!
12
1"
#180
0D
0C
0!
03
02
1#
0"
#190
1D
1C
1!
12
1"
#200
1F
1E
0D
0C
0!
14
13
02
1$
0#
0"
#210
1D
1C
1!
12
1"
#220
0D
0C
0!
03
02
1#
0"
#230
1D
1C
1!
12
1"
#240
0F
0E
0D
0C
0!
05
04
13
02
1%
0$
0#
0"
#250
1D
1C
1!
12
1"
#260
0D
0C
0!
03
02
1#
0"
#270
1D
1C
1!
12
1"
#280
1F
1E
0D
0C
0!
14
13
02
1$
0#
0"
#290
1D
1C
1!
12
1"
#300
0D
0C
0!
03
02
1#
0"
#310
1D
1C
1!
12
1"
#320
0H
0G
0F
0E
0D
0C
0!
07
06
15
04
13
02
1'
0&
0%
0$
0#
0"
#330
1D
1C
1!
12
1"
#340
0D
0C
0!
03
02
1#
0"
#350
1D
1C
1!
12
1"
#360
1F
1E
0D
0C
0!
14
13
02
1$
0#
0"
#370
1D
1C
1!
12
1"
#380
0D
0C
0!
03
02
1#
0"
#390
1D
1C
1!
12
1"
#400
0F
0E
0D
0C
0!
05
04
13
02
1%
0$
0#
0"
#410
1D
1C
1!
12
1"
#420
0D
0C
0!
03
02
1#
0"
#430
1D
1C
1!
12
1"
#440
1F
1E
0D
0C
0!
14
13
02
1$
0#
0"
#450
1D
1C
1!
12
1"
#460
0D
0C
0!
03
02
1#
0"
#470
1D
1C
1!
12
1"
#480
1H
1G
0F
0E
0D
0C
0!
16
15
04
13
02
1&
0%
0$
0#
0"
#490
1D
1C
1!
12
1"
#500
0D
0C
0!
03
02
1#
0"
#510
1D
1C
1!
12
1"
#520
1F
1E
0D
0C
0!
14
13
02
1$
0#
0"
#530
1D
1C
1!
12
1"
#540
0D
0C
0!
03
02
1#
0"
#550
1D
1C
1!
12
1"
#560
0F
0E
0D
0C
0!
05
04
13
02
1%
0$
0#
0"
#570
1D
1C
1!
12
1"
#580
0D
0C
0!
03
02
1#
0"
#590
1D
1C
1!
12
1"
#600
1F
1E
0D
0C
0!
14
13
02
1$
0#
0"
#610
1D
1C
1!
12
1"
#620
0D
0C
0!
03
02
1#
0"
#630
1D
1C
1!
12
1"
#640
1J
0H
1I
0G
0F
0E
0D
0C
0!
18
17
06
15
04
13
02
1(
0'
0&
0%
0$
0#
0"
#650
1D
1C
1!
12
1"
#660
0D
0C
0!
03
02
1#
0"
#670
1D
1C
1!
12
1"
#680
1F
1E
0D
0C
0!
14
13
02
1$
0#
0"
#690
1D
1C
1!
12
1"
#700
0D
0C
0!
03
02
1#
0"
#710
1D
1C
1!
12
1"
#720
0F
0E
0D
0C
0!
05
04
13
02
1%
0$
0#
0"
#730
1D
1C
1!
12
1"
#740
0D
0C
0!
03
02
1#
0"
#750
1D
1C
1!
12
1"
#760
1F
1E
0D
0C
0!
14
13
02
1$
0#
0"
#770
1D
1C
1!
12
1"
#780
0D
0C
0!
03
02
1#
0"
#790
1D
1C
1!
12
1"
#800
1H
1G
0F
0E
0D
0C
0!
16
15
04
13
02
1&
0%
0$
0#
0"
#810
1D
1C
1!
12
1"
#820
0D
0C
0!
03
02
1#
0"
#830
1D
1C
1!
12
1"
#840
1F
1E
0D
0C
0!
14
13
02
1$
0#
0"
#850
1D
1C
1!
12
1"
#860
0D
0C
0!
03
02
1#
0"
#870
1D
1C
1!
12
1"
#880
0F
0E
0D
0C
0!
05
04
13
02
1%
0$
0#
0"
#890
1D
1C
1!
12
1"
#900
0D
0C
0!
03
02
1#
0"
#910
1D
1C
1!
12
1"
#920
1F
1E
0D
0C
0!
14
13
02
1$
0#
0"
#930
1D
1C
1!
12
1"
#940
0D
0C
0!
03
02
1#
0"
#950
1D
1C
1!
12
1"
#960
0H
0G
0F
0E
0D
0C
0!
07
06
15
04
13
02
1'
0&
0%
0$
0#
0"
#970
1D
1C
1!
12
1"
#980
0D
0C
0!
03
02
1#
0"
#990
1D
1C
1!
12
1"
#1000
1F
1E
0D
0C
0!
14
13
02
1$
0#
0"
#1010
1D
1C
1!
12
1"
#1020
0D
0C
0!
03
02
1#
0"
#1030
1D
1C
1!
12
1"
#1040
0F
0E
0D
0C
0!
05
04
13
02
1%
0$
0#
0"
#1050
1D
1C
1!
12
1"
#1060
0D
0C
0!
03
02
1#
0"
#1070
1D
1C
1!
12
1"
#1080
1F
1E
0D
0C
0!
14
13
02
1$
0#
0"
#1090
1D
1C
1!
12
1"
#1100
0D
0C
0!
03
02
1#
0"
#1110
1D
1C
1!
12
1"
#1120
1H
1G
0F
0E
0D
0C
0!
16
15
04
13
02
1&
0%
0$
0#
0"
#1130
1D
1C
1!
12
1"
#1140
0D
0C
0!
03
02
1#
0"
#1150
1D
1C
1!
12
1"
#1160
1F
1E
0D
0C
0!
14
13
02
1$
0#
0"
#1170
1D
1C
1!
12
1"
#1180
0D
0C
0!
03
02
1#
0"
#1190
1D
1C
1!
12
1"
#1200
0F
0E
0D
0C
0!
05
04
13
02
1%
0$
0#
0"
#1210
1D
1C
1!
12
1"
#1220
0D
0C
0!
03
02
1#
0"
#1230
1D
1C
1!
12
1"
#1240
1F
1E
0D
0C
0!
14
13
02
1$
0#
0"
#1250
1D
1C
1!
12
1"
#1260
0D
0C
0!
03
02
1#
0"
#1270
1D
1C
1!
12
1"
#1280
0J
0H
0I
0G
0F
0E
0D
0C
0!
09
08
17
06
15
04
13
02
1)
0(
0'
0&
0%
0$
0#
0"
#1290
1D
1C
1!
12
1"
#1300
0D
0C
0!
03
02
1#
0"
#1310
1D
1C
1!
12
1"
#1320
1F
1E
0D
0C
0!
14
13
02
1$
0#
0"
#1330
1D
1C
1!
12
1"
#1340
0D
0C
0!
03
02
1#
0"
#1350
1D
1C
1!
12
1"
#1360
0F
0E
0D
0C
0!
05
04
13
02
1%
0$
0#
0"
#1370
1D
1C
1!
12
1"
#1380
0D
0C
0!
03
02
1#
0"
#1390
1D
1C
1!
12
1"
#1400
1F
1E
0D
0C
0!
14
13
02
1$
0#
0"
#1410
1D
1C
1!
12
1"
#1420
0D
0C
0!
03
02
1#
0"
#1430
1D
1C
1!
12
1"
#1440
1H
1G
0F
0E
0D
0C
0!
16
15
04
13
02
1&
0%
0$
0#
0"
#1450
1D
1C
1!
12
1"
#1460
0D
0C
0!
03
02
1#
0"
#1470
1D
1C
1!
12
1"
#1480
1F
1E
0D
0C
0!
14
13
02
1$
0#
0"
#1490
1D
1C
1!
12
1"
#1500
0D
0C
0!
03
02
1#
0"
#1510
1D
1C
1!
12
1"
#1520
0F
0E
0D
0C
0!
05
04
13
02
1%
0$
0#
0"
#1530
1D
1C
1!
12
1"
#1540
0D
0C
0!
03
02
1#
0"
#1550
1D
1C
1!
12
1"
#1560
1F
1E
0D
0C
0!
14
13
02
1$
0#
0"
#1570
1D
1C
1!
12
1"
#1580
0D
0C
0!
03
02
1#
0"
#1590
1D
1C
1!
12
1"
#1600
0H
0G
0F
0E
0D
0C
0!
07
06
15
04
13
02
1'
0&
0%
0$
0#
0"
#1610
1D
1C
1!
12
1"
#1620
0D
0C
0!
03
02
1#
0"
#1630
1D
1C
1!
12
1"
#1640
1F
1E
0D
0C
0!
14
13
02
1$
0#
0"
#1650
1D
1C
1!
12
1"
#1660
0D
0C
0!
03
02
1#
0"
#1670
1D
1C
1!
12
1"
#1680
0F
0E
0D
0C
0!
05
04
13
02
1%
0$
0#
0"
#1690
1D
1C
1!
12
1"
#1700
0D
0C
0!
03
02
1#
0"
#1710
1D
1C
1!
12
1"
#1720
1F
1E
0D
0C
0!
14
13
02
1$
0#
0"
#1730
1D
1C
1!
12
1"
#1740
0D
0C
0!
03
02
1#
0"
#1750
1D
1C
1!
12
1"
#1760
1H
1G
0F
0E
0D
0C
0!
16
15
04
13
02
1&
0%
0$
0#
0"
#1770
1D
1C
1!
12
1"
#1780
0D
0C
0!
03
02
1#
0"
#1790
1D
1C
1!
12
1"
#1800
1F
1E
0D
0C
0!
14
13
02
1$
0#
0"
#1810
1D
1C
1!
12
1"
#1820
0D
0C
0!
03
02
1#
0"
#1830
1D
1C
1!
12
1"
#1840
0F
0E
0D
0C
0!
05
04
13
02
1%
0$
0#
0"
#1850
1D
1C
1!
12
1"
#1860
0D
0C
0!
03
02
1#
0"
#1870
1D
1C
1!
12
1"
#1880
1F
1E
0D
0C
0!
14
13
02
1$
0#
0"
#1890
1D
1C
1!
12
1"
#1900
0D
0C
0!
03
02
1#
0"
#1910
1D
1C
1!
12
1"
#1920
1J
0H
1I
0G
0F
0E
0D
0C
0!
18
17
06
15
04
13
02
1(
0'
0&
0%
0$
0#
0"
#1930
1D
1C
1!
12
1"
#1940
0D
0C
0!
03
02
1#
0"
#1950
1D
1C
1!
12
1"
#1960
1F
1E
0D
0C
0!
14
13
02
1$
0#
0"
#1970
1D
1C
1!
12
1"
#1980
0D
0C
0!
03
02
1#
0"
#1990
1D
1C
1!
12
1"
#2000
0F
0E
0D
0C
0!
05
04
13
02
1%
0$
0#
0"
#2010
1D
1C
1!
12
1"
#2020
0D
0C
0!
03
02
1#
0"
#2030
1D
1C
1!
12
1"
#2040
1F
1E
0D
0C
0!
14
13
02
1$
0#
0"
#2050
1D
1C
1!
12
1"
#2060
0D
0C
0!
03
02
1#
0"
#2070
1D
1C
1!
12
1"
#2080
1H
1G
0F
0E
0D
0C
0!
16
15
04
13
02
1&
0%
0$
0#
0"
#2090
1D
1C
1!
12
1"
#2100
0D
0C
0!
03
02
1#
0"
#2110
1D
1C
1!
12
1"
#2120
1F
1E
0D
0C
0!
14
13
02
1$
0#
0"
#2130
1D
1C
1!
12
1"
#2140
0D
0C
0!
03
02
1#
0"
#2150
1D
1C
1!
12
1"
#2160
0F
0E
0D
0C
0!
05
04
13
02
1%
0$
0#
0"
#2170
1D
1C
1!
12
1"
#2180
0D
0C
0!
03
02
1#
0"
#2190
1D
1C
1!
12
1"
#2200
1F
1E
0D
0C
0!
14
13
02
1$
0#
0"
#2210
1D
1C
1!
12
1"
#2220
0D
0C
0!
03
02
1#
0"
#2230
1D
1C
1!
12
1"
#2240
0H
0G
0F
0E
0D
0C
0!
07
06
15
04
13
02
1'
0&
0%
0$
0#
0"
#2250
1D
1C
1!
12
1"
#2260
0D
0C
0!
03
02
1#
0"
#2270
1D
1C
1!
12
1"
#2280
1F
1E
0D
0C
0!
14
13
02
1$
0#
0"
#2290
1D
1C
1!
12
1"
#2300
0D
0C
0!
03
02
1#
0"
#2310
1D
1C
1!
12
1"
#2320
0F
0E
0D
0C
0!
05
04
13
02
1%
0$
0#
0"
#2330
1D
1C
1!
12
1"
#2340
0D
0C
0!
03
02
1#
0"
#2350
1D
1C
1!
12
1"
#2360
1F
1E
0D
0C
0!
14
13
02
1$
0#
0"
#2370
1D
1C
1!
12
1"
#2380
0D
0C
0!
03
02
1#
0"
#2390
1D
1C
1!
12
1"
#2400
1H
1G
0F
0E
0D
0C
0!
16
15
04
13
02
1&
0%
0$
0#
0"
#2410
1D
1C
1!
12
1"
#2420
0D
0C
0!
03
02
1#
0"
#2430
1D
1C
1!
12
1"
#2440
1F
1E
0D
0C
0!
14
13
02
1$
0#
0"
#2450
1D
1C
1!
12
1"
#2460
0D
0C
0!
03
02
1#
0"
#2470
1D
1C
1!
12
1"
#2480
0F
0E
0D
0C
0!
05
04
13
02
1%
0$
0#
0"
#2490
1D
1C
1!
12
1"
#2500
0D
0C
0!
03
02
1#
0"
#2510
1D
1C
1!
12
1"
#2520
1F
1E
0D
0C
0!
14
13
02
1$
0#
0"
#2530
1D
1C
1!
12
1"
#2540
0D
0C
0!
03
02
1#
0"
#2550
1D
1C
1!
12
1"
#2560
1L
1K
0J
0H
0I
0G
0F
0E
0D
0C
0!
1:
19
08
17
06
15
04
13
02
1*
0)
0(
0'
0&
0%
0$
0#
0"
#2570
1D
1C
1!
12
1"
#2580
0D
0C
0!
03
02
1#
0"
#2590
1D
1C
1!
12
1"
#2600
1F
1E
0D
0C
0!
14
13
02
1$
0#
0"
#2610
1D
1C
1!
12
1"
#2620
0D
0C
0!
03
02
1#
0"
#2630
1D
1C
1!
12
1"
#2640
0F
0E
0D
0C
0!
05
04
13
02
1%
0$
0#
0"
#2650
1D
1C
1!
12
1"
#2660
0D
0C
0!
03
02
1#
0"
#2670
1D
1C
1!
12
1"
#2680
1F
1E
0D
0C
0!
14
13
02
1$
0#
0"
#2690
1D
1C
1!
12
1"
#2700
0D
0C
0!
03
02
1#
0"
#2710
1D
1C
1!
12
1"
#2720
1H
1G
0F
0E
0D
0C
0!
16
15
04
13
02
1&
0%
0$
0#
0"
#2730
1D
1C
1!
12
1"
#2740
0D
0C
0!
03
02
1#
0"
#2750
1D
1C
1!
12
1"
#2760
1F
1E
0D
0C
0!
14
13
02
1$
0#
0"
#2770
1D
1C
1!
12
1"
#2780
0D
0C
0!
03
02
1#
0"
#2790
1D
1C
1!
12
1"
#2800
0F
0E
0D
0C
0!
05
04
13
02
1%
0$
0#
0"
#2810
1D
1C
1!
12
1"
#2820
0D
0C
0!
03
02
1#
0"
#2830
1D
1C
1!
12
1"
#2840
1F
1E
0D
0C
0!
14
13
02
1$
0#
0"
#2850
1D
1C
1!
12
1"
#2860
0D
0C
0!
03
02
1#
0"
#2870
1D
1C
1!
12
1"
#2880
0H
0G
0F
0E
0D
0C
0!
07
06
15
04
13
02
1'
0&
0%
0$
0#
0"
#2890
1D
1C
1!
12
1"
#2900
0D
0C
0!
03
02
1#
0"
#2910
1D
1C
1!
12
1"
#2920
1F
1E
0D
0C
0!
14
13
02
1$
0#
0"
#2930
1D
1C
1!
12
1"
#2940
0D
0C
0!
03
02
1#
0"
#2950
1D
1C
1!
12
1"
#2960
0F
0E
0D
0C
0!
05
04
13
02
1%
0$
0#
0"
#2970
1D
1C
1!
12
1"
#2980
0D
0C
0!
03
02
1#
0"
#2990
1D
1C
1!
12
1"
#3000
1F
1E
0D
0C
0!
14
13
02
1$
0#
0"
#3010
1D
1C
1!
12
1"
#3020
0D
0C
0!
03
02
1#
0"
#3030
1D
1C
1!
12
1"
#3040
1H
1G
0F
0E
0D
0C
0!
16
15
04
13
02
1&
0%
0$
0#
0"
#3050
1D
1C
1!
12
1"
#3060
0D
0C
0!
03
02
1#
0"
#3070
1D
1C
1!
12
1"
#3080
1F
1E
0D
0C
0!
14
13
02
1$
0#
0"
#3090
1D
1C
1!
12
1"
#3100
0D
0C
0!
03
02
1#
0"
#3110
1D
1C
1!
12
1"
#3120
0F
0E
0D
0C
0!
05
04
13
02
1%
0$
0#
0"
#3130
1D
1C
1!
12
1"
#3140
0D
0C
0!
03
02
1#
0"
#3150
1D
1C
1!
12
1"
#3160
1F
1E
0D
0C
0!
14
13
02
1$
0#
0"
#3170
1D
1C
1!
12
1"
#3180
0D
0C
0!
03
02
1#
0"
#3190
1D
1C
1!
12
1"
#3200
1J
0H
1I
0G
0F
0E
0D
0C
0!
18
17
06
15
04
13
02
1(
0'
0&
0%
0$
0#
0"
#3210
1D
1C
1!
12
1"
#3220
0D
0C
0!
03
02
1#
0"
#3230
1D
1C
1!
12
1"
#3240
1F
1E
0D
0C
0!
14
13
02
1$
0#
0"
#3250
1D
1C
1!
12
1"
#3260
0D
0C
0!
03
02
1#
0"
#3270
1D
1C
1!
12
1"
#3280
0F
0E
0D
0C
0!
05
04
13
02
1%
0$
0#
0"
#3290
1D
1C
1!
12
1"
#3300
0D
0C
0!
03
02
1#
0"
#3310
1D
1C
1!
12
1"
#3320
1F
1E
0D
0C
0!
14
13
02
1$
0#
0"
#3330
1D
1C
1!
12
1"
#3340
0D
0C
0!
03
02
1#
0"
#3350
1D
1C
1!
12
1"
#3360
1H
1G
0F
0E
0D
0C
0!
16
15
04
13
02
1&
0%
0$
0#
0"
#3370
1D
1C
1!
12
1"
#3380
0D
0C
0!
03
02
1#
0"
#3390
1D
1C
1!
12
1"
#3400
1F
1E
0D
0C
0!
14
13
02
1$
0#
0"
#3410
1D
1C
1!
12
1"
#3420
0D
0C
0!
03
02
1#
0"
#3430
1D
1C
1!
12
1"
#3440
0F
0E
0D
0C
0!
05
04
13
02
1%
0$
0#
0"
#3450
1D
1C
1!
12
1"
#3460
0D
0C
0!
03
02
1#
0"
#3470
1D
1C
1!
12
1"
#3480
1F
1E
0D
0C
0!
14
13
02
1$
0#
0"
#3490
1D
1C
1!
12
1"
#3500
0D
0C
0!
03
02
1#
0"
#3510
1D
1C
1!
12
1"
#3520
0H
0G
0F
0E
0D
0C
0!
07
06
15
04
13
02
1'
0&
0%
0$
0#
0"
#3530
1D
1C
1!
12
1"
#3540
0D
0C
0!
03
02
1#
0"
#3550
1D
1C
1!
12
1"
#3560
1F
1E
0D
0C
0!
14
13
02
1$
0#
0"
#3570
1D
1C
1!
12
1"
#3580
0D
0C
0!
03
02
1#
0"
#3590
1D
1C
1!
12
1"
#3600
0F
0E
0D
0C
0!
05
04
13
02
1%
0$
0#
0"
#3610
1D
1C
1!
12
1"
#3620
0D
0C
0!
03
02
1#
0"
#3630
1D
1C
1!
12
1"
#3640
1F
1E
0D
0C
0!
14
13
02
1$
0#
0"
#3650
1D
1C
1!
12
1"
#3660
0D
0C
0!
03
02
1#
0"
#3670
1D
1C
1!
12
1"
#3680
1H
1G
0F
0E
0D
0C
0!
16
15
04
13
02
1&
0%
0$
0#
0"
#3690
1D
1C
1!
12
1"
#3700
0D
0C
0!
03
02
1#
0"
#3710
1D
1C
1!
12
1"
#3720
1F
1E
0D
0C
0!
14
13
02
1$
0#
0"
#3730
1D
1C
1!
12
1"
#3740
0D
0C
0!
03
02
1#
0"
#3750
1D
1C
1!
12
1"
#3760
0F
0E
0D
0C
0!
05
04
13
02
1%
0$
0#
0"
#3770
1D
1C
1!
12
1"
#3780
0D
0C
0!
03
02
1#
0"
#3790
1D
1C
1!
12
1"
#3800
1F
1E
0D
0C
0!
14
13
02
1$
0#
0"
#3810
1D
1C
1!
12
1"
#3820
0D
0C
0!
03
02
1#
0"
#3830
1D
1C
1!
12
1"
#3840
0J
0H
0I
0G
0F
0E
0D
0C
0!
09
08
17
06
15
04
13
02
1)
0(
0'
0&
0%
0$
0#
0"
#3850
1D
1C
1!
12
1"
#3860
0D
0C
0!
03
02
1#
0"
#3870
1D
1C
1!
12
1"
#3880
1F
1E
0D
0C
0!
14
13
02
1$
0#
0"
#3890
1D
1C
1!
12
1"
#3900
0D
0C
0!
03
02
1#
0"
#3910
1D
1C
1!
12
1"
#3920
0F
0E
0D
0C
0!
05
04
13
02
1%
0$
0#
0"
#3930
1D
1C
1!
12
1"
#3940
0D
0C
0!
03
02
1#
0"
#3950
1D
1C
1!
12
1"
#3960
1F
1E
0D
0C
0!
14
13
02
1$
0#
0"
#3970
1D
1C
1!
12
1"
#3980
0D
0C
0!
03
02
1#
0"
#3990
1D
1C
1!
12
1"
#4000
1H
1G
0F
0E
0D
0C
0!
16
15
04
13
02
1&
0%
0$
0#
0"
#4010
1D
1C
1!
12
1"
#4020
0D
0C
0!
03
02
1#
0"
#4030
1D
1C
1!
12
1"
#4040
1F
1E
0D
0C
0!
14
13
02
1$
0#
0"
#4050
1D
1C
1!
12
1"
#4060
0D
0C
0!
03
02
1#
0"
#4070
1D
1C
1!
12
1"
#4080
0F
0E
0D
0C
0!
05
04
13
02
1%
0$
0#
0"
#4090
1D
1C
1!
12
1"
#4100
0D
0C
0!
03
02
1#
0"
#4110
1D
1C
1!
12
1"
#4120
1F
1E
0D
0C
0!
14
13
02
1$
0#
0"
#4130
1D
1C
1!
12
1"
#4140
0D
0C
0!
03
02
1#
0"
#4150
1D
1C
1!
12
1"
#4160
0H
0G
0F
0E
0D
0C
0!
07
06
15
04
13
02
1'
0&
0%
0$
0#
0"
#4170
1D
1C
1!
12
1"
#4180
0D
0C
0!
03
02
1#
0"
#4190
1D
1C
1!
12
1"
#4200
1F
1E
0D
0C
0!
14
13
02
1$
0#
0"
#4210
1D
1C
1!
12
1"
#4220
0D
0C
0!
03
02
1#
0"
#4230
1D
1C
1!
12
1"
#4240
0F
0E
0D
0C
0!
05
04
13
02
1%
0$
0#
0"
#4250
1D
1C
1!
12
1"
#4260
0D
0C
0!
03
02
1#
0"
#4270
1D
1C
1!
12
1"
#4280
1F
1E
0D
0C
0!
14
13
02
1$
0#
0"
#4290
1D
1C
1!
12
1"
#4300
0D
0C
0!
03
02
1#
0"
#4310
1D
1C
1!
12
1"
#4320
1H
1G
0F
0E
0D
0C
0!
16
15
04
13
02
1&
0%
0$
0#
0"
#4330
1D
1C
1!
12
1"
#4340
0D
0C
0!
03
02
1#
0"
#4350
1D
1C
1!
12
1"
#4360
1F
1E
0D
0C
0!
14
13
02
1$
0#
0"
#4370
1D
1C
1!
12
1"
#4380
0D
0C
0!
03
02
1#
0"
#4390
1D
1C
1!
12
1"
#4400
0F
0E
0D
0C
0!
05
04
13
02
1%
0$
0#
0"
#4410
1D
1C
1!
12
1"
#4420
0D
0C
0!
03
02
1#
0"
#4430
1D
1C
1!
12
1"
#4440
1F
1E
0D
0C
0!
14
13
02
1$
0#
0"
#4450
1D
1C
1!
12
1"
#4460
0D
0C
0!
03
02
1#
0"
#4470
1D
1C
1!
12
1"
#4480
1J
0H
1I
0G
0F
0E
0D
0C
0!
18
17
06
15
04
13
02
1(
0'
0&
0%
0$
0#
0"
#4490
1D
1C
1!
12
1"
#4500
0D
0C
0!
03
02
1#
0"
#4510
1D
1C
1!
12
1"
#4520
1F
1E
0D
0C
0!
14
13
02
1$
0#
0"
#4530
1D
1C
1!
12
1"
#4540
0D
0C
0!
03
02
1#
0"
#4550
1D
1C
1!
12
1"
#4560
0F
0E
0D
0C
0!
05
04
13
02
1%
0$
0#
0"
#4570
1D
1C
1!
12
1"
#4580
0D
0C
0!
03
02
1#
0"
#4590
1D
1C
1!
12
1"
#4600
1F
1E
0D
0C
0!
14
13
02
1$
0#
0"
#4610
1D
1C
1!
12
1"
#4620
0D
0C
0!
03
02
1#
0"
#4630
1D
1C
1!
12
1"
#4640
1H
1G
0F
0E
0D
0C
0!
16
15
04
13
02
1&
0%
0$
0#
0"
#4650
1D
1C
1!
12
1"
#4660
0D
0C
0!
03
02
1#
0"
#4670
1D
1C
1!
12
1"
#4680
1F
1E
0D
0C
0!
14
13
02
1$
0#
0"
#4690
1D
1C
1!
12
1"
#4700
0D
0C
0!
03
02
1#
0"
#4710
1D
1C
1!
12
1"
#4720
0F
0E
0D
0C
0!
05
04
13
02
1%
0$
0#
0"
#4730
1D
1C
1!
12
1"
#4740
0D
0C
0!
03
02
1#
0"
#4750
1D
1C
1!
12
1"
#4760
1F
1E
0D
0C
0!
14
13
02
1$
0#
0"
#4770
1D
1C
1!
12
1"
#4780
0D
0C
0!
03
02
1#
0"
#4790
1D
1C
1!
12
1"
#4800
0H
0G
0F
0E
0D
0C
0!
07
06
15
04
13
02
1'
0&
0%
0$
0#
0"
#4810
1D
1C
1!
12
1"
#4820
0D
0C
0!
03
02
1#
0"
#4830
1D
1C
1!
12
1"
#4840
1F
1E
0D
0C
0!
14
13
02
1$
0#
0"
#4850
1D
1C
1!
12
1"
#4860
0D
0C
0!
03
02
1#
0"
#4870
1D
1C
1!
12
1"
#4880
0F
0E
0D
0C
0!
05
04
13
02
1%
0$
0#
0"
#4890
1D
1C
1!
12
1"
#4900
0D
0C
0!
03
02
1#
0"
#4910
1D
1C
1!
12
1"
#4920
1F
1E
0D
0C
0!
14
13
02
1$
0#
0"
#4930
1D
1C
1!
12
1"
#4940
0D
0C
0!
03
02
1#
0"
#4950
1D
1C
1!
12
1"
#4960
1H
1G
0F
0E
0D
0C
0!
16
15
04
13
02
1&
0%
0$
0#
0"
#4970
1D
1C
1!
12
1"
#4980
0D
0C
0!
03
02
1#
0"
#4990
1D
1C
1!
12
1"
#5000
1F
1E
0D
0C
0!
14
13
02
1$
0#
0"
#5010
1D
1C
1!
12
1"
#5020
0D
0C
0!
03
02
1#
0"
#5030
1D
1C
1!
12
1"
#5040
0F
0E
0D
0C
0!
05
04
13
02
1%
0$
0#
0"
#5050
1D
1C
1!
12
1"
#5060
0D
0C
0!
03
02
1#
0"
#5070
1D
1C
1!
12
1"
#5080
1F
1E
0D
0C
0!
14
13
02
1$
0#
0"
#5090
1D
1C
1!
12
1"
#5100
0D
0C
0!
03
02
1#
0"
#5110
1D
1C
1!
12
1"
#5120
0L
0K
0J
0H
0I
0G
0F
0E
0D
0C
0!
0;
0:
19
08
17
06
15
04
13
02
1+
0*
0)
0(
0'
0&
0%
0$
0#
0"
#5130
1D
1C
1!
12
1"
#5140
0D
0C
0!
03
02
1#
0"
#5150
1D
1C
1!
12
1"
#5160
1F
1E
0D
0C
0!
14
13
02
1$
0#
0"
#5170
1D
1C
1!
12
1"
#5180
0D
0C
0!
03
02
1#
0"
#5190
1D
1C
1!
12
1"
#5200
0F
0E
0D
0C
0!
05
04
13
02
1%
0$
0#
0"
#5210
1D
1C
1!
12
1"
#5220
0D
0C
0!
03
02
1#
0"
#5230
1D
1C
1!
12
1"
